%YAML 1.1
%TAG !u! tag:unity3d.com,2011:
--- !u!1045 &1
EditorBuildSettings:
  m_ObjectHideFlags: 0
  serializedVersion: 2
  m_Scenes:
  - enabled: 0
    path: 
    guid: 00000000000000000000000000000000
  - enabled: 1
    path: Assets/Scenes/MainMenu.unity
    guid: ef060d647208e2f499a8d45504546987
  - enabled: 1
    path: Assets/Scenes/Game.unity
    guid: 878989580ca8f7e4796ec6f8d77dbda5
  m_configObjects: {}
